<?xml version="1.0" standalone="no"?>
<!DOCTYPE svg PUBLIC "-//W3C//DTD SVG 1.1//EN" "http://www.w3.org/Graphics/SVG/1.1/DTD/svg11.dtd" >
<svg xmlns="http://www.w3.org/2000/svg">
<metadata>Generated by IcoMoon</metadata>
<defs>
<font id="icomoon" horiz-adv-x="1024">
<font-face units-per-em="1024" ascent="960" descent="-64" />
<missing-glyph horiz-adv-x="1024" />
<glyph unicode="&#x20;" horiz-adv-x="512" d="" />
<glyph unicode="&#xe900;" glyph-name="android" horiz-adv-x="1273" d="M820.944 866.456h-31.024c-1.688 0-3.1-1.273-3.1-2.851v-45.969c0-17.076 13.976-25.6 30.997-25.6h6.227c17.048 0 30.997 8.552 30.997 25.6v45.969c0 1.578-1.384 2.851-3.044 2.851h-31.052zM749.596 878.91h148.895c13.672 0.047 24.747 11.102 24.825 24.762v24.832c-0.047 13.692-11.134 24.778-24.821 24.825h-148.899c-13.692-0.047-24.778-11.134-24.825-24.821v-24.829c0.063-13.68 11.143-24.75 24.821-24.797h0.005zM876.572 813.125c0-14.115-15.305-39.687-55.628-39.687s-55.628 27.897-55.628 39.687c-210.086-27.288-372.404-206.793-372.404-424.323 0-236.378 191.654-428.032 428.032-428.032 236.406 0 428.032 191.654 428.032 428.032 0 217.531-162.29 397.035-372.404 424.323zM820.944 47.616c-188.444 0-341.186 152.77-341.186 341.186 0 188.444 152.742 341.213 341.186 341.213s341.186-152.77 341.186-341.213c0-188.444-152.77-341.186-341.186-341.186zM833.342 425.029v236.738h-18.57v-236.765c-19.681-4.416-34.166-21.74-34.166-42.447 0-23.997 19.454-43.451 43.451-43.451s43.451 19.454 43.451 43.451c0 20.707-14.485 38.031-33.875 42.392l-0.29 0.055zM859.828 449.107s11.126-3.321 18.487-10.683c7.362-7.334 12.233-20.010 12.233-20.010l74.448 74.448-30.665 30.72-74.503-74.448zM10.932 402.197c0-17.048 13.976-30.997 31.024-30.997h265.493c17.048 0 31.024 13.949 31.024 30.997s-13.976 31.024-30.997 31.024h-265.548c-17.048 0-30.997-13.976-30.997-31.024zM197.051 712.607c0-17.048 13.949-30.997 30.997-30.997h191.903c17.048 0 30.997 13.949 30.997 30.997 0 17.076-13.949 31.024-30.997 31.024h-191.903c-17.048 0-30.997-13.949-30.997-30.997zM197.051 92.285c0-17.076 13.949-30.997 30.997-30.997h191.903c17.048 0 30.997 13.921 30.997 30.997 0 17.048-13.949 30.997-30.997 30.997h-191.903c-17.048 0.028-30.997-13.921-30.997-30.997zM79.18 244.279c0-17.048 13.949-30.997 30.997-30.997h225.834c17.048 0 30.997 13.949 30.997 30.997s-13.949 30.997-30.997 30.997h-225.806c-17.076 0-30.997-13.949-30.997-30.997zM79.18 559.422c0-17.076 13.949-31.024 30.997-31.024h225.834c17.048 0 30.997 13.949 30.997 30.997 0 17.076-13.949 31.024-30.997 31.024h-225.806c-17.076 0-30.997-13.949-30.997-30.997z" />
<glyph unicode="&#xe901;" glyph-name="blank" horiz-adv-x="859" d="M215.932 720.12c0 28.788 23.337 52.125 52.125 52.125s52.125-23.337 52.125-52.125v0c0-28.788-23.337-52.125-52.125-52.125s-52.125 23.337-52.125 52.125v0zM155.879 532.463c3.072-1.486 6.012-3.237 9.084-4.558 18.594-7.573 40.134-12.8 62.632-14.647l0.79-0.052c20.15-2.048 40.431-2.543 60.647-1.453 19.374 0.81 37.701 3.438 55.378 7.729l-1.932-0.396c13.857 3.178 26.055 7.722 37.437 13.623l-0.87-0.41c3.105 1.652 3.402 2.081 3.237 6.309 0 9.117-0.727 32.041-1.453 41.125-0.752 10.495-2.632 20.251-5.532 29.557l0.247-0.919c-1.663 7.931-7.223 14.266-14.54 16.993l-0.159 0.052c-10.57 3.204-21.141 6.871-31.579 10.24l-28.177 7.928c-2.643 0.892-2.643 0-3.369-2.477-5.43-27.118-10.911-48.828-17.276-70.157l1.421 5.546-1.486-4.691v1.321c-1.321 13.081-2.643 26.129-4.096 39.209-0.127 0.809-0.2 1.741-0.2 2.691 0 2.635 0.56 5.139 1.567 7.4l-0.046-0.116c0.727 1.652 1.354 3.303 1.883 4.988 0.267 0.739 0.422 1.591 0.422 2.48 0 2.656-1.381 4.989-3.464 6.322l-0.030 0.018h-16.285c-0.685-0.112-1.266-0.487-1.646-1.016l-0.005-0.008c-1.106-1.52-1.769-3.424-1.769-5.483 0-1.199 0.225-2.346 0.635-3.4l-0.022 0.064c0.727-2.048 1.486-4.096 2.345-6.144 0.278-0.97 0.438-2.085 0.438-3.237s-0.16-2.267-0.458-3.323l0.021 0.086c-0.991-9.414-1.883-18.927-2.94-28.342l-1.321-12.916c-5.779 18.162-11.858 42.185-16.762 66.633l-0.812 4.849c-0.548 0.039-1.188 0.061-1.833 0.061s-1.285-0.022-1.919-0.065l0.086 0.005-59.458-19.093c-5.999-2.088-10.597-6.827-12.449-12.776l-0.037-0.139c-1.951-5.413-3.681-11.932-4.876-18.635l-0.112-0.755c-2.015-18.63-2.973-37.359-2.973-56.089-0.33-1.519 0.33-3.105 1.652-3.964zM831.323 887.329v-898.808c-0.094-25.679-20.894-46.468-46.568-46.542h-732.563c-25.679 0.094-46.468 20.894-46.542 46.568v898.947c0.075 25.693 20.883 46.501 46.568 46.575h732.696c25.693-0.075 46.501-20.883 46.575-46.568v-0.007l-0.165-0.132zM772.591 875.107h-708.212v-874.364h708.344v874.562l-0.132-0.132zM489.34 698.946h166.35c16.218 0 29.366 13.147 29.366 29.366s-13.147 29.366-29.366 29.366v0h-166.218c-0.589 0.042-1.276 0.066-1.969 0.066-16.218 0-29.366-13.147-29.366-29.366s13.147-29.366 29.366-29.366c0.693 0 1.38 0.024 2.061 0.071l-0.092-0.005-0.132-0.132zM489.34 586.471h166.35c16.218 0 29.366 13.147 29.366 29.366s-13.147 29.366-29.366 29.366v0h-166.218c-15.349-1.063-27.397-13.774-27.397-29.3s12.048-28.237 27.305-29.295l0.092-0.005-0.132-0.132zM167.606 376.617h501.892c16.218 0 29.366 13.147 29.366 29.366s-13.147 29.366-29.366 29.366v0h-501.892c-16.218 0-29.366-13.147-29.366-29.366s13.147-29.366 29.366-29.366v0zM167.606 248.452h501.892c16.218 0 29.366 13.147 29.366 29.366s-13.147 29.366-29.366 29.366h-501.892c-16.264 0-29.448-13.184-29.448-29.448s13.184-29.448 29.448-29.448v0 0.165zM167.606 120.254h501.892c16.218 0 29.366 13.147 29.366 29.366s-13.147 29.366-29.366 29.366h-501.892c-16.255 0-29.432-13.177-29.432-29.432s13.177-29.432 29.432-29.432v0 0.132z" />
<glyph unicode="&#xe902;" glyph-name="case" horiz-adv-x="1083" d="M90.2 49.196v214.864h135.314v-86.338c0-24.986 20.217-45.261 45.115-45.261s45.115 20.275 45.115 45.261v86.338h451.028v-86.338c0-24.986 20.217-45.261 45.115-45.261s45.115 20.275 45.115 45.261v86.338h135.314v-214.864h-902.115zM90.2 354.611v309.541h902.115v-309.57h-902.115zM315.743 754.469v114.981h451.028v-114.951h-451.028zM1037.4 754.498h-180.4v160.212c0 24.956-20.217 45.232-45.115 45.232h-541.257c-24.898 0-45.115-20.275-45.115-45.232v-160.212h-180.4c-24.927 0-45.115-20.275-45.115-45.261v-705.302c0-24.986 20.187-45.261 45.115-45.261h992.285c24.898 0 45.115 20.275 45.115 45.261v705.302c0 24.986-20.187 45.261-45.115 45.261z" />
<glyph unicode="&#xe903;" glyph-name="check" d="M512-57.608c279.024 0 505.608 226.552 505.608 505.608 0 279.024-226.552 505.608-505.608 505.608-279.024 0-505.608-226.552-505.608-505.608 0-279.024 226.552-505.608 505.608-505.608zM512 863.992c229.128 0 415.992-186.864 415.992-415.992s-186.864-415.992-415.992-415.992-415.992 186.864-415.992 415.992 186.864 415.992 415.992 415.992zM423.688 289.28c8.968-8.968 20.48-12.816 31.992-12.816s21.752 3.848 30.72 12.816l264.968 252.152c8.676 7.949 14.096 19.33 14.096 31.977 0 12.030-4.903 22.914-12.821 30.763l-0.003 0.003c-7.947 8.657-19.316 14.064-31.947 14.064-12.029 0-22.913-4.903-30.762-12.819l-0.003-0.003-234.248-221.432-121.608 121.639c-8.138 8.294-19.465 13.435-31.992 13.435s-23.854-5.141-31.985-13.428l-0.007-0.007c-8.304-8.14-13.451-19.473-13.451-32.008s5.147-23.868 13.444-32.001l0.007-0.007 153.6-152.328z" />
<glyph unicode="&#xe904;" glyph-name="earn" horiz-adv-x="1255" d="M1158.673 576.495c0 26.393-21.636 47.765-48.293 47.765h-346.607c-93.283 0-168.993-75.049-168.993-167.077 0-92.061 75.71-167.143 168.993-167.143h346.607c26.657 0 48.293 21.405 48.293 47.765v238.724zM996.253 194.61h-232.481c-146.597 0-265.546 117.826-265.546 262.606 0 144.747 118.949 262.573 265.546 262.573h232.481v96.983c0 26.36-21.801 47.732-48.26 47.732h-803.146c-26.657 0-48.293-21.372-48.293-47.732v-737.544c0-25.963 22.033-47.732 48.293-47.732h803.146c26.062 0 48.26 21.768 48.26 47.732v115.349zM1255.226 576.529v-238.724c0-78.881-64.875-143.228-144.846-143.228h-17.573v-115.349c0-79.046-65.074-143.228-144.813-143.228h-803.146c-79.938 0-144.846 64.182-144.846 143.228v737.544c0 78.881 64.875 143.228 144.846 143.228h803.146c79.74 0 144.813-64.347 144.813-143.228v-97.016h17.573c79.938 0 144.846-64.347 144.846-143.228zM832.875 457.183c0-36.104-29.729-65.734-66.395-65.734-36.699 0-66.461 29.63-66.461 65.734 0 36.071 29.729 65.668 66.428 65.668s66.428-29.597 66.428-65.668z" />
<glyph unicode="&#xe905;" d="M962.144 172.928l-145.984 146.080c-13.95 13.602-33.039 21.992-54.086 21.992-0.403 0-0.805-0.003-1.206-0.009l0.061 0.001c-0.066 0-0.144 0-0.221 0-22.874 0-43.609-9.16-58.735-24.013l0.013 0.012-70.976-70.976-11.456 6.336c-67.355 35.139-125.203 77.487-175.783 127.205l0.103-0.101c-49.834 50.686-92.363 108.777-125.74 172.421l-1.908 3.995-5.824 10.72 71.104 71.008c32 31.136 32.832 82.24 1.92 114.464l-146.304 145.856c-13.918 13.658-33.008 22.089-54.068 22.089-0.409 0-0.818-0.003-1.226-0.010l0.062 0.001c-0.105 0-0.23 0.001-0.355 0.001-22.91 0-43.671-9.2-58.791-24.106l0.010 0.010-35.84-36.16c-0.823-0.819-1.552-1.732-2.171-2.72l-0.037-0.064-2.912-4.832c-13.493-17.352-24.982-37.235-33.557-58.601l-0.587-1.655c-7.189-17.949-12.587-38.819-15.238-60.538l-0.122-1.222c-19.488-161.472 54.016-308.864 253.536-508.352 236.16-236.16 435.136-254.432 490.464-254.432 6.080-0.064 12.16 0.16 18.176 0.704 23.032 2.87 43.957 8.377 63.658 16.285l-1.706-0.605c23.216 9.146 43.27 20.773 61.25 34.918l-0.514-0.39 8.256 6.4 1.184 1.12 33.632 33.024c15.146 14.723 24.543 35.29 24.543 58.052 0 21.805-8.624 41.596-22.647 56.149l0.024-0.025zM939.136 80.032l-32.928-32.32-7.52-5.92c-15.277-11.995-32.816-22.136-51.7-29.616l-1.42-0.496c-15.8-6.403-34.173-11.234-53.3-13.647l-1.1-0.113c-0.512 0-5.632-0.608-14.88-0.608-52.416 0-240.96 17.664-469.184 245.6-192.224 192.256-263.168 332.32-244.896 483.744 2.208 18.56 6.72 36.8 13.44 54.208 7.456 19.2 17.6 37.216 30.144 53.536l0.992 1.408 2.816 3.904 34.656 34.848c9.64 9.496 22.882 15.36 37.493 15.36 0.049 0 0.097 0 0.146 0h-0.008c12.64 0.288 24.864-4.48 33.92-13.248l146.016-145.92c19.104-20.416 18.24-52.384-1.92-71.776l-79.584-79.2c-2.746-2.726-4.445-6.502-4.445-10.675 0-2.722 0.723-5.276 1.988-7.478l-0.039 0.073 11.648-20.096c36.672-70.509 80.97-131.052 133.024-183.938l-0.096 0.098c52.411-51.437 112.485-95.325 178.294-129.741l4.138-1.971 21.376-11.84c2.023-1.080 4.425-1.715 6.975-1.715 4.293 0 8.167 1.799 10.907 4.684l0.006 0.007 79.040 79.040c10.080 9.824 23.648 15.264 37.728 15.168 12.736 0.096 24.992-4.896 34.048-13.856l145.888-146.016c9.184-9.184 14.208-21.76 13.952-34.72-0.236-14.4-6.187-27.365-15.676-36.764l-0.004-0.004h0.096z" />
<glyph unicode="&#xe906;" d="M567.36 820.128c174.56-0.224 316.032-141.696 316.256-316.288 0-8.324 6.748-15.072 15.072-15.072s15.072 6.748 15.072 15.072v0c-0.224 191.232-155.2 346.176-346.4 346.4-8.315 0-15.056-6.741-15.056-15.056s6.741-15.056 15.056-15.056v0zM537.216 679.552c113.643-0.091 205.747-92.183 205.856-205.813v-0.011c0-8.306 6.734-15.040 15.040-15.040s15.040 6.734 15.040 15.040v0c-0.164 130.244-105.694 235.786-235.918 235.968h-0.018c-8.324 0-15.072-6.748-15.072-15.072s6.748-15.072 15.072-15.072v0z" />
<glyph unicode="&#xe907;" glyph-name="profit" horiz-adv-x="1109" d="M544.427 20.565c-29.326-6.969-63.46-5.49-94.862 3.897l-228.836 107.435c-4.53 2.259-9.867 3.582-15.513 3.582-19.543 0-35.385-15.842-35.385-35.385 0-14.269 8.446-26.566 20.612-32.163l0.22-0.091 231.111-108.487 4.466-1.707c44.658-13.995 93.639-16.156 137.045-5.291l3.499 1.052 499.94 181.589c17.636 6.4 27.193 25.458 21.817 43.406-4.921 16.412-16.014 38.599-35.897 60.672-33.024 36.693-79.588 58.88-139.492 58.88h-231.054c-19.106-0.559-34.382-16.181-34.382-35.371s15.276-34.812 34.33-35.369l0.051-0.001h231.083c39.168 0 66.873-13.198 86.926-35.47 1.28-1.422 2.503-2.844 3.698-4.324l-459.321-166.855zM394.354 204.004c-0.299 0.009-0.65 0.014-1.003 0.014-19.543 0-35.385-15.842-35.385-35.385s15.842-35.385 35.385-35.385c0.353 0 0.704 0.005 1.055 0.015l-0.051-0.001h330.126c19.513 0 35.356 15.815 35.356 35.356 0 87.922-88.946 176.868-176.868 176.868h-123.733c-48.071 59.506-124.075 94.322-206.421 94.322h-47.132c-0.299 0.009-0.65 0.014-1.003 0.014-19.543 0-35.385-15.842-35.385-35.385s15.842-35.385 35.385-35.385c0.353 0 0.704 0.005 1.055 0.015l-0.051-0.001h47.189c66.418 0 126.094-29.838 159.403-78.848 6.599-9.671 17.55-15.474 29.269-15.474h141.483c37.262 0 79.36-33.28 97.28-70.741h-285.924zM70.741 416.37v-306.574h70.741v306.574h-70.741zM35.385 487.111h141.483c19.541 0 35.385-15.844 35.385-35.385v-377.316c0-19.513-15.844-35.356-35.385-35.356h-141.483c-19.533 0-35.369 15.826-35.385 35.355v377.318c0 19.541 15.844 35.385 35.385 35.385zM752.27 416.996c-84.658 0-153.287 68.629-153.287 153.287s68.629 153.287 153.287 153.287v0c84.658 0 153.287-68.629 153.287-153.287s-68.629-153.287-153.287-153.287v0zM752.27 487.737c0.456-0.009 0.993-0.014 1.532-0.014 45.589 0 82.546 36.957 82.546 82.546s-36.957 82.546-82.546 82.546c-0.539 0-1.076-0.005-1.613-0.015l0.080 0.001c-44.925-0.86-81.014-37.482-81.014-82.532s36.089-81.671 80.933-82.53l0.080-0.001zM437.020 653.426c-84.658 0-153.287 68.629-153.287 153.287s68.629 153.287 153.287 153.287v0c84.658 0 153.287-68.629 153.287-153.287s-68.629-153.287-153.287-153.287v0zM437.020 724.167c45.589 0 82.546 36.957 82.546 82.546s-36.957 82.546-82.546 82.546v0c-45.589 0-82.546-36.957-82.546-82.546s36.957-82.546 82.546-82.546v0z" />
<glyph unicode="&#xe908;" glyph-name="service" horiz-adv-x="892" d="M85.884 30.637l81.458 54.305c11.231 7.465 25.765 7.465 36.996 0l114.787-76.536 114.82 76.536c11.231 7.465 25.765 7.465 36.996 0l114.787-76.536 114.82 76.536c11.198 7.465 25.765 7.465 36.996 0l81.458-54.305v837.5h-733.118v-837.5zM71.019-59.375c-5.19-3.497-11.584-5.582-18.465-5.582-18.407 0-33.33 14.922-33.33 33.33v0 933.095c0 18.399 14.898 33.33 33.33 33.33h799.777c18.399 0 33.33-14.931 33.33-33.363v-933.062c0-26.624-29.663-42.513-51.795-27.747l-114.82 76.536-114.82-76.536c-11.198-7.465-25.765-7.465-36.996 0l-114.787 76.536-114.82-76.536c-11.198-7.465-25.765-7.465-36.996 0l-114.787 76.536-114.82-76.536zM230.268 601.534h222.175c18.407 0 33.33 14.922 33.33 33.33s-14.922 33.33-33.33 33.33v0h-222.208c-18.407 0-33.33-14.922-33.33-33.33s14.922-33.33 33.33-33.33v0zM630.156 601.534h44.461c18.407 0 33.33 14.922 33.33 33.33s-14.922 33.33-33.33 33.33v0h-44.461c-18.407 0-33.33-14.922-33.33-33.33s14.922-33.33 33.33-33.33v0zM230.268 423.787h222.175c18.407 0 33.33 14.922 33.33 33.33s-14.922 33.33-33.33 33.33v0h-222.208c-18.407 0-33.33-14.922-33.33-33.33s14.922-33.33 33.33-33.33v0zM630.156 423.787h44.461c18.407 0 33.33 14.922 33.33 33.33s-14.922 33.33-33.33 33.33v0h-44.461c-18.407 0-33.33-14.922-33.33-33.33s14.922-33.33 33.33-33.33v0zM230.268 246.074h222.175c0.313-0.011 0.68-0.017 1.049-0.017 18.407 0 33.33 14.922 33.33 33.33s-14.922 33.33-33.33 33.33c-0.369 0-0.736-0.006-1.103-0.018l0.053 0.001h-222.208c-0.313 0.011-0.68 0.017-1.049 0.017-18.407 0-33.33-14.922-33.33-33.33s14.922-33.33 33.33-33.33c0.369 0 0.736 0.006 1.103 0.018l-0.053-0.001zM630.156 246.074h44.461c17.95 0.583 32.28 15.275 32.28 33.313s-14.33 32.73-32.227 33.312l-0.053 0.001h-44.461c-0.313 0.011-0.68 0.017-1.049 0.017-18.407 0-33.33-14.922-33.33-33.33s14.922-33.33 33.33-33.33c0.369 0 0.736 0.006 1.103 0.018l-0.053-0.001z" />
<glyph unicode="&#xe909;" glyph-name="star" horiz-adv-x="1051" d="M525.474 259.476c8.381 0 16.788-2.56 23.552-7.707l199.599-144.438-76.153 233.795c-1.271 3.724-2.004 8.014-2.004 12.476 0 13.316 6.535 25.106 16.573 32.337l0.118 0.081 199.276 144.6h-246.407c-17.784 0.012-32.865 11.568-38.157 27.58l-0.081 0.284-76.315 233.984-76.315-233.984c-5.376-16.304-20.47-27.864-38.264-27.864 0 0-0.001 0-0.001 0h-246.353l199.249-144.6c14.201-10.132 20.184-28.349 14.686-44.921l-76.153-233.795 199.599 144.438c6.764 5.12 15.171 7.707 23.552 7.707zM825.29-38.4c-8.246 0-16.627 2.587-23.579 7.734l-276.237 200.138-276.237-200.138c-6.535-4.832-14.752-7.734-23.646-7.734s-17.112 2.902-23.756 7.811l0.109-0.077c-10.16 7.312-16.698 19.104-16.698 32.423 0 4.47 0.736 8.767 2.094 12.779l-0.082-0.281 105.526 323.8-276.076 200.327c-10.16 7.312-16.698 19.104-16.698 32.423 0 4.47 0.736 8.767 2.094 12.779l-0.082-0.281c5.382 16.284 20.461 27.829 38.237 27.837h341.289l105.661 323.988c10.644 33.145 65.832 33.145 76.477 0l105.688-323.988h341.288c17.435 0 32.93-11.264 38.265-27.837 1.272-3.726 2.007-8.018 2.007-12.482 0-13.329-6.547-25.128-16.601-32.358l-0.119-0.081-276.049-200.327 105.526-323.8c1.275-3.73 2.012-8.028 2.012-12.498 0-13.319-6.538-25.112-16.58-32.343l-0.118-0.081c-6.508-4.831-14.699-7.734-23.567-7.734-0.051 0-0.103 0-0.154 0h0.008z" />
</font></defs></svg>